<?xml version="1.0" encoding="utf-8"?>
<!-- Generator: Adobe Illustrator 18.0.0, SVG Export Plug-In . SVG Version: 6.00 Build 0)  -->
<!DOCTYPE svg PUBLIC "-//W3C//DTD SVG 1.1 Tiny//EN" "http://www.w3.org/Graphics/SVG/1.1/DTD/svg11-tiny.dtd">
<svg version="1.1" baseProfile="tiny" id="Layer_1" xmlns="http://www.w3.org/2000/svg" xmlns:xlink="http://www.w3.org/1999/xlink"
	 x="0px" y="0px" viewBox="0 0 100 100" xml:space="preserve">
<g>
	<path fill="none" d="M75.7,47.9c0-1.9-1.1-3-3.4-3c-0.2,0-0.5,0-0.8,0v6.4h0.8C74.8,51.3,75.7,49.9,75.7,47.9z"/>
	<path fill="none" d="M14.9,47.9c0-1.9-1.1-3-3.4-3c-0.2,0-0.5,0-0.8,0v6.4h0.8C14,51.3,14.9,49.9,14.9,47.9z"/>
	<rect x="39.3" y="42.3" fill="#3763AF" width="4.7" height="15.4"/>
	<polygon fill="#3763AF" points="47.6,42.3 47.6,57.7 56.1,57.7 56.8,54.6 52.3,54.6 52.3,42.3 	"/>
	<path fill="#3763AF" d="M73.2,54c4.4,0,7.2-2.3,7.2-6.2c0-4.3-3-5.9-7.8-5.9c-1.9,0-4.1,0.1-5.8,0.3v15.4h4.7V54H73.2z M71.5,44.9
		c0.3,0,0.5,0,0.8,0c2.3,0,3.4,1.1,3.4,3c0,2-1,3.4-3.4,3.4h-0.8V44.9z"/>
	<rect x="58.5" y="42.3" fill="#3763AF" width="4.7" height="15.4"/>
	<path fill="#3763AF" d="M86.6,46.2c0-0.8,0.8-1.2,2.2-1.2c1.5,0,3.1,0.3,4.2,0.8l-0.4-3.4c-1.2-0.3-2.3-0.5-4.3-0.5
		c-3.8,0-6.4,1.5-6.4,4.6c0,5.4,7.4,4.3,7.4,6.8c0,1-0.7,1.5-2.5,1.5c-1.6,0-3.9-0.5-5.4-1.2l0.5,3.5c1.4,0.5,3.4,0.8,4.9,0.8
		c4,0,7.2-1.3,7.2-5.2C94,47.7,86.6,48.7,86.6,46.2z"/>
	<polygon fill="#3763AF" points="21.5,42.3 21.5,57.7 26.2,57.7 26.2,51.6 31.1,51.6 31.1,57.7 35.9,57.7 35.9,42.3 31.1,42.3 
		31.1,48.4 26.2,48.4 26.2,42.3 	"/>
	<path fill="#3763AF" d="M12.4,54c4.4,0,7.2-2.3,7.2-6.2c0-4.3-3-5.9-7.8-5.9c-1.9,0-4.1,0.1-5.8,0.3v15.4h4.7V54H12.4z M10.7,44.9
		c0.3,0,0.5,0,0.8,0c2.3,0,3.4,1.1,3.4,3c0,2-1,3.4-3.4,3.4h-0.8V44.9z"/>
</g>
</svg>
